Test case Rainfall pipeline La Corona
…
Rows: 2440 Columns: 8
── Column specification ────────────────────────────────────────────────────────
Delimiter: ","
chr (3): X2, X7, X8
dbl (3): X1, X3, X4
lgl (2): X5, X6

ℹ Use `spec()` to retrieve the full column specification for this data.
ℹ Specify the column types or set `show_col_types = FALSE` to quiet this message.

test_data

# A tibble: 422 × 2
   Date                Event
   <dttm>              <dbl>
 1 2023-05-25 14:18:59     0
 2 2023-05-26 12:18:32     1
 3 2023-05-26 12:19:45     2
 4 2023-05-26 12:21:16     3
 5 2023-05-26 12:23:00     4
 6 2023-05-26 12:24:24     5
 7 2023-05-26 12:26:30     6
 8 2023-05-26 12:28:05     7
 9 2023-05-26 12:29:19     8
10 2023-05-26 12:30:27     9
# ℹ 412 more rows
…
